chr	start	end	length	nCG	meanMethy1	meanMethy2	diff.Methy	areaStat
Chr3	10518268	10520970	2703	71	0.895243269985234	0.0686959104732184	0.826547359512015	1746.8230669077
Chr3	28141675	28144813	3139	78	0.880270423609497	0.0667563841481846	0.813514039461312	1711.08186031869
Chr3	30046418	30048793	2376	78	0.891736272151527	0.109907122100106	0.781829150051421	1630.45942510141
Chr3	26300667	26303687	3021	90	0.872036979371014	0.222909117041419	0.649127862329595	1369.72900232542
Chr7	36962435	36963286	852	39	0.90446816825678	0.0536120389970645	0.850856129259716	1354.5256702958
Chr3	31524985	31525489	505	35	0.10333638443275	0.913730404855652	-0.810394020422902	-1289.5337416955
Chr5	24120132	24121789	1658	48	0.0922919242990671	0.909099059184873	-0.816807134885806	-1156.8428444491
Chr3	15071522	15072712	1191	48	0.0784438261673567	0.855592966145807	-0.77714913997845	-1145.42492144747
Chr3	26622951	26626613	3663	82	0.744889639248731	0.0647346693504772	0.680154969898254	1107.62379481579
Chr2	28432862	28434724	1863	58	0.846698937344335	0.123959090906997	0.722739846437338	1105.24041606081
Chr4	32387278	32388667	1390	73	0.080864776721618	0.611703762983261	-0.530838986261643	-1097.25431388064
NW_013657548.1	54749	56714	1966	83	0.805856198844761	0.253109633436469	0.552746565408292	1087.25963365821
Chr6	33385411	33388346	2936	108	0.555468491361236	0.115920944311198	0.439547547050039	1001.16805603297
Chr2	17440453	17442467	2015	84	0.165911194886674	0.708748243796746	-0.542837048910072	-988.473897497535
Chr3	55254185	55255514	1330	56	0.106564724233434	0.758293438644637	-0.651728714411204	-985.744652236434
Chr6	14404556	14406382	1827	68	0.826893624239589	0.298630791702176	0.528262832537413	940.63445100962
Chr7	9757103	9758513	1411	36	0.100774634312063	0.874498368165395	-0.773723733853332	-846.389898262155
Chr5	6839151	6841859	2709	86	0.195200098852268	0.636059422192696	-0.440859323340428	-816.793400094666
Chr6	18636729	18638694	1966	57	0.727714625143653	0.0683441929832737	0.659370432160379	805.827622652984
Chr5	6151583	6152354	772	35	0.832362304382548	0.0595636925455129	0.772798611837036	803.066736823219
Chr7	21774156	21774758	603	32	0.875827873367983	0.10530536799805	0.770522505369933	799.969575474432
Chr3	6548753	6550246	1494	50	0.90905322126383	0.22061193048962	0.68844129077421	782.469762744398
Chr5	40086999	40087747	749	31	0.894839163844984	0.0834538686534884	0.811385295191496	780.662292138109
Chr5	24118574	24119459	886	37	0.0595171560140371	0.827915565782016	-0.768398409767979	-761.232517577552
Chr5	41216202	41217406	1205	40	0.237245694438757	0.906935366240998	-0.66968967180224	-693.55766047331
Chr1	2160445	2162261	1817	56	0.698322541876496	0.0812009545832521	0.617121587293244	691.720875095916
Chr8	770010	771669	1660	50	0.0714023817231032	0.760131492747512	-0.688729111024409	-687.47063828561
Chr7	42772550	42773449	900	35	0.793108645000695	0.0613338152929781	0.731774829707717	648.556779786267
Chr7	8982654	8983892	1239	37	0.885247628893228	0.209798140299191	0.675449488594037	610.29494812487
Chr8	287578	288461	884	39	0.179543906440064	0.817637949392878	-0.638094042952814	-595.525678139863
Chr7	15498035	15499600	1566	59	0.225752413714869	0.734241236987676	-0.508488823272807	-592.833581770444
Chr8	291020	292512	1493	57	0.741527281597272	0.250622315900358	0.490904965696914	582.376590178808
NW_013657015.1	10627	11425	799	43	0.86570831972072	0.324480273830635	0.541228045890085	571.644648041824
Chr3	24638364	24639258	895	44	0.831988828533502	0.265178099384987	0.566810729148515	565.4311309962
Chr3	1838434	1840544	2111	60	0.520473698481678	0.0476979085583741	0.472775789923304	549.62448087155
Chr4	52240077	52241175	1099	31	0.928352624991177	0.219433109565411	0.708919515425766	547.290067824072
Chr5	6835855	6837384	1530	46	0.201019145888491	0.805429778562618	-0.604410632674127	-524.602047159755
Chr6	21348499	21349642	1144	35	0.164465961908326	0.821954844499799	-0.657488882591473	-504.23324121516
Chr3	28492148	28493741	1594	39	0.73779818123857	0.052275156015757	0.685523025222813	499.791410185017
Chr5	26027544	26028792	1249	34	0.788906007121797	0.146448547359062	0.642457459762735	489.823811121107
Chr1	47747092	47747371	280	23	0.887964100923224	0.112397477784559	0.775566623138664	487.718955017141
Chr8	17931792	17932699	908	24	0.130490268755715	0.891235411552343	-0.760745142796628	-482.881553484528
Chr3	52705644	52706494	851	21	0.909446284770939	0.0855162473027419	0.823930037468197	476.450496219512
Chr7	7308379	7309522	1144	42	0.795407656492049	0.215019675048822	0.580387981443227	472.47051451219
Chr6	27970200	27971044	845	35	0.134817651161494	0.762099225443807	-0.627281574282313	-470.887680362647
Chr8	17304142	17305303	1162	43	0.219397381010119	0.780794367878809	-0.561396986868689	-465.874322066418
Chr7	42104936	42106039	1104	49	0.846943638218609	0.378089992605186	0.468853645613423	465.320622991664
Chr2	39002543	39003015	473	25	0.900140583736898	0.212642711615521	0.687497872121377	463.718969140844
NW_013657529.1	7480	8392	913	47	0.879510300928268	0.492491018158049	0.387019282770219	462.50659139982
Chr7	44266725	44267477	753	50	0.614758574028783	0.182838141658621	0.431920432370162	459.393153003763
Chr3	46271347	46272801	1455	60	0.822778981627756	0.419059636982741	0.403719344645015	452.908496983395
Chr6	7000809	7001710	902	24	0.906290154326322	0.15995739399953	0.746332760326792	450.307280190621
Chr1	47739178	47740695	1518	50	0.664794732613139	0.184506669753944	0.480288062859195	448.72756741947
Chr3	12529265	12530457	1193	53	0.653390603110061	0.219580758545584	0.433809844564477	446.002953136266
Chr7	3946983	3947495	513	28	0.138099801506303	0.811702655615945	-0.673602854109641	-442.030692758668
Chr6	18638960	18640131	1172	30	0.739143163001444	0.0562642005397766	0.682878962461667	441.488721643088
Chr1	25548002	25549081	1080	35	0.84767953586205	0.201470652903199	0.646208882958851	436.003174870917
Chr2	1045304	1046263	960	33	0.156264903190162	0.754320648428047	-0.598055745237885	-433.735380747259
Chr4	47730827	47731692	866	27	0.778443142619026	0.0725375713843267	0.705905571234699	428.568796661419
Chr1	2703407	2704489	1083	34	0.735433297069362	0.136206043370171	0.599227253699191	419.440930182418
Chr6	33411142	33412856	1715	39	0.177304860827759	0.760398030527348	-0.583093169699589	-415.232103951698
Chr1	47318218	47318752	535	32	0.769609568539233	0.202349602905633	0.567259965633599	414.893237181949
Chr2	36814151	36814928	778	36	0.201585623450023	0.675161657249036	-0.473576033799013	-411.337744539136
Chr3	2275548	2276109	562	28	0.830604229938543	0.20684645735215	0.623757772586393	409.539133344193
Chr5	23498618	23499828	1211	45	0.759369557114149	0.289231669063515	0.470137888050634	409.495903141557
Chr5	12084219	12085424	1206	34	0.222464387224874	0.841579936441498	-0.619115549216624	-406.206518656145
Chr3	8232149	8233209	1061	27	0.174055065682116	0.900658043646977	-0.726602977964861	-406.191606507355
Chr5	41220616	41221162	547	21	0.0717376079805379	0.860085687073892	-0.788348079093354	-404.068642704822
Chr4	19799189	19800157	969	29	0.154045703246212	0.821872017369	-0.667826314122788	-390.828880493846
Chr5	32800631	32801496	866	26	0.0976872548375959	0.88889449561811	-0.791207240780514	-386.87293850574
NW_013657132.1	4625	5264	640	33	0.69439486617726	0.12415835998813	0.57023650618913	383.33300982346
Chr1	16576824	16577357	534	27	0.93913510522962	0.354277187963399	0.584857917266221	382.305262160606
Chr3	55488540	55489455	916	46	0.859022683215509	0.468898163104884	0.390124520110625	380.379244477158
Chr2	38839579	38840206	628	21	0.0606303501666052	0.774723567632242	-0.714093217465637	-379.733053960322
Chr8	20811352	20812367	1016	33	0.245314004830158	0.820209669472117	-0.574895664641959	-379.534344860101
NW_013656969.1	2392	3346	955	40	0.845143219107764	0.351990165060789	0.493153054046975	377.216207846812
Chr7	22473025	22473980	956	31	0.901169543634029	0.269806442839663	0.631363100794367	372.332986548615
Chr7	33306762	33307557	796	35	0.260221468806797	0.793636645884114	-0.533415177077317	-372.23136597129
Chr3	46437014	46437826	813	28	0.170639830123774	0.79256097174215	-0.621921141618377	-368.408534253512
Chr5	24843057	24843979	923	42	0.798746050696022	0.359538689129315	0.439207361566706	368.165709489184
Chr8	7270680	7271213	534	28	0.0871949439923766	0.680685878188207	-0.59349093419583	-366.879601217578
Chr3	8857315	8858120	806	33	0.789242390391677	0.243734638534595	0.545507751857082	366.254501413192
Chr7	1964701	1965381	681	29	0.217452685235835	0.767574140120648	-0.550121454884813	-360.900036117834
Chr3	44753448	44754672	1225	26	0.114347766083364	0.79566941245721	-0.681321646373847	-353.996124745248
Chr3	43305562	43306247	686	38	0.655822815138086	0.196676513206501	0.459146301931584	353.247158405996
Chr2	34199862	34201961	2100	35	0.0766764303156929	0.745131406696032	-0.668454976380339	-352.067342719884
Chr4	50961576	50962720	1145	51	0.504523130353504	0.121196189330001	0.383326941023503	345.125608177371
Chr8	14385491	14386602	1112	45	0.879735786082454	0.465951243793771	0.413784542288683	344.239953993146
Chr7	15479922	15480719	798	26	0.192173140834712	0.841590418187569	-0.649417277352857	-341.146263330626
Chr4	21820660	21821869	1210	31	0.347773884637117	0.902972261000595	-0.555198376363478	-335.452297302446
Chr3	12986839	12987551	713	44	0.0826046193957302	0.439008817482515	-0.356404198086784	-335.413225135018
Chr5	1790067	1790769	703	27	0.173277667998347	0.735222479005292	-0.561944811006946	-334.803963861578
Chr4	1275411	1276385	975	45	0.752855365248279	0.326392491677996	0.426462873570283	333.263195775195
Chr7	47921297	47922563	1267	49	0.230587028327029	0.621794530108758	-0.391207501781729	-332.950567543632
Chr3	1605932	1606776	845	31	0.681368088694608	0.139303978836824	0.542064109857784	332.582860183035
Chr6	21409277	21410389	1113	29	0.847743317018138	0.206755808198776	0.640987508819363	330.869353511229
Chr3	3564671	3566020	1350	33	0.832539653957223	0.248292629926411	0.584247024030812	320.123549490869
Chr3	5814482	5814993	512	33	0.121066602893564	0.559256163519047	-0.438189560625483	-317.909853057865
Chr6	5889237	5891253	2017	30	0.832556036393399	0.155530187662418	0.677025848730981	317.024735715012
Chr7	36974560	36975514	955	28	0.142921830589395	0.693635715508235	-0.55071388491884	-314.872238563905
Chr3	47975572	47976321	750	30	0.673538686513931	0.0887786811294164	0.584760005384514	314.591833629699
Chr8	7459051	7460254	1204	24	0.842261413408003	0.129907254265722	0.712354159142281	310.748358796762
Chr1	39170695	39171538	844	26	0.626749118149605	0.0533416604820915	0.573407457667513	307.439634442794
Chr3	44507039	44507686	648	15	0.0936017331327132	0.904805522895882	-0.811203789763169	-306.218409605019
Chr5	18252	18776	525	33	0.604798076192002	0.193009724104729	0.411788352087272	303.406599931142
Chr8	20820896	20821719	824	39	0.721716998300394	0.345533068944348	0.376183929356046	302.176088512651
Chr1	20861081	20861727	647	23	0.209823699164161	0.851832917375011	-0.64200921821085	-299.738455600083
Chr8	27814291	27814968	678	22	0.209814735580347	0.880806618738485	-0.670991883158137	-294.742632177902
Chr3	1737284	1737906	623	21	0.717084520754189	0.0767258386803723	0.640358682073816	291.687143089744
Chr5	10886522	10887102	581	29	0.127952053556333	0.572073054127732	-0.444121000571399	-286.568570014535
Chr2	41000544	41001226	683	28	0.79993028110922	0.290526197588281	0.509404083520939	286.043285029552
Chr3	28499260	28499984	725	20	0.836880423161514	0.125326321482822	0.711554101678692	285.914969513387
Chr3	1622853	1623789	937	32	0.58264480755661	0.082369991013753	0.500274816542857	283.99866861919
Chr7	5616698	5617338	641	41	0.875197087541333	0.599262673296062	0.27593441424527	279.413222579995
Chr3	23434437	23435351	915	32	0.615079569804521	0.102063324963082	0.513016244841439	275.643433582999
Chr1	21371317	21372513	1197	38	0.488135409596285	0.0732354871678814	0.414899922428403	270.923307596383
Chr3	10878086	10879096	1011	36	0.531532137486504	0.122638238472544	0.40889389901396	267.533098679415
Chr8	17232887	17233509	623	24	0.820186876351518	0.23534469463477	0.584842181716748	267.249819860554
NW_013657541.1	233122	233851	730	19	0.854522392498352	0.167415014448749	0.687107378049603	266.412380190192
NW_013657535.1	116025	116596	572	23	0.0702169396330621	0.649311252284578	-0.579094312651516	-264.953922633564
NW_013656896.1	4961	5364	404	16	0.0880723115257612	0.731759677447667	-0.643687365921906	-264.735873547592
Chr2	21849537	21850136	600	32	0.668202802876771	0.204829179078788	0.463373623797983	263.28959076051
Chr7	42459864	42460597	734	19	0.167164345728292	0.831381954736149	-0.664217609007857	-263.054354385523
Chr3	49056910	49057346	437	25	0.78596356014687	0.2594502878107	0.52651327233617	262.521962893291
NW_013657546.1	242874	243520	647	20	0.151459559609103	0.797668241909907	-0.646208682300805	-261.547595722842
Chr2	9310379	9311035	657	30	0.87944392140393	0.428416880452527	0.451027040951402	261.080137877764
Chr1	41489628	41490458	831	37	0.524812901721023	0.0988435571961019	0.425969344524921	260.706242035763
Chr8	26517200	26517905	706	21	0.0748186293839838	0.690697773285674	-0.61587914390169	-258.881798806335
Chr4	16593904	16594470	567	23	0.167948483524689	0.684224808621178	-0.516276325096489	-256.894029695612
Chr1	49831469	49831876	408	20	0.0836855202278105	0.652247499601424	-0.568561979373614	-256.324534891716
Chr7	44501663	44502419	757	26	0.814488521991775	0.355670006615209	0.458818515376566	256.13881845292
Chr3	19770679	19771310	632	31	0.791720218124206	0.323117975549614	0.468602242574592	254.841944955514
Chr6	24179392	24179874	483	36	0.282823507653646	0.035546252490777	0.247277255162869	254.140046901718
Chr1	13731537	13731997	461	27	0.214285487024525	0.657707124693974	-0.443421637669449	-254.068892999402
Chr6	26973073	26973948	876	28	0.145420731634561	0.713732919397879	-0.568312187763318	-253.461033287284
Chr2	15942007	15943002	996	25	0.881211935287012	0.312288243767708	0.568923691519305	253.042538985896
Chr6	31902323	31902798	476	18	0.135372996259455	0.759718094480127	-0.624345098220672	-251.671461465131
Chr3	16891887	16892750	864	37	0.537186450890993	0.192158696269773	0.34502775462122	251.27577187977
Chr2	41378281	41378865	585	36	0.700286980772226	0.904063971934184	-0.203776991161957	-250.464759998181
Chr1	34482105	34482559	455	24	0.804626446504383	0.263753172605907	0.540873273898476	249.995196945469
Chr1	17334391	17334875	485	18	0.868947372628448	0.202270035589508	0.666677337038941	249.563493431856
Chr3	34476207	34476853	647	40	0.387181329354367	0.112495603326758	0.274685726027609	246.358921081111
Chr8	23570474	23571348	875	36	0.233741868439255	0.629463647269076	-0.395721778829821	-246.340841735741
Chr4	51169163	51169857	695	21	0.302841207649994	0.911576047855605	-0.608734840205611	-245.121592388218
Chr7	35942496	35942933	438	17	0.86872786417109	0.189135459776255	0.679592404394835	244.883263753591
Chr1	49213734	49214223	490	20	0.851396874153145	0.178902773076501	0.672494101076644	244.525459486809
Chr7	45182303	45182873	571	26	0.407659767053135	0.882412780506822	-0.474753013453686	-242.694854887848
Chr3	39819740	39820154	415	13	0.074596751555616	0.936244013262299	-0.861647261706683	-242.367798692543
Chr2	11671793	11672302	510	23	0.125441596139535	0.687384761648566	-0.561943165509031	-242.183372310826
Chr7	44263957	44265076	1120	40	0.758850913844237	0.412215176303308	0.346635737540929	240.598661000607
Chr7	48769312	48770308	997	34	0.49440713813639	0.0939583974116927	0.400448740724697	240.048572868073
Chr3	50630291	50631658	1368	20	0.794499887935011	0.0730830647576656	0.721416823177345	239.306577502677
Chr2	42345943	42346439	497	36	0.365384671381432	0.676901390667487	-0.311516719286056	-236.775817874176
Chr3	23376622	23377525	904	20	0.884605859043333	0.205504584965519	0.679101274077814	236.468938645882
Chr8	36998041	36999220	1180	35	0.247338190842672	0.656573745801188	-0.409235554958515	-236.110506440286
Chr6	10780281	10780787	507	21	0.754388424249934	0.220694906274892	0.533693517975042	233.975932202014
Chr6	12906173	12907261	1089	24	0.0944242817247279	0.755292553765424	-0.660868272040696	-233.433572421749
Chr6	28719323	28720529	1207	29	0.173330637414958	0.776516845180052	-0.603186207765094	-231.00562741827
Chr4	24746525	24747157	633	18	0.780583086806633	0.12602861742127	0.654554469385363	228.844702384447
Chr6	9936562	9937032	471	36	0.440096410274192	0.754565074150535	-0.314468663876343	-227.690594102243
Chr6	2744619	2745259	641	22	0.746695945875236	0.202693120897743	0.544002824977493	227.102144841903
Chr3	1117667	1118181	515	25	0.581667792123815	0.142124586627372	0.439543205496442	222.480664579103
Chr8	5646006	5646699	694	27	0.730378667460325	0.24211733485268	0.488261332607645	221.717921923908
Chr7	48430355	48430996	642	31	0.123614981899147	0.538314065754768	-0.414699083855621	-221.202268013465
Chr8	20003755	20004496	742	23	0.89844702195208	0.378161370143534	0.520285651808546	220.968050566621
Chr4	9166300	9166919	620	16	0.109950225547609	0.813137545207482	-0.703187319659873	-220.851720825728
Chr1	28559601	28560110	510	23	0.604325876207533	0.116303281005737	0.488022595201795	220.784116873018
Chr1	17712880	17713610	731	30	0.355722486599301	0.790274868302688	-0.434552381703387	-219.96569956834
Chr5	20859	21559	701	31	0.733302770693755	0.352193014585379	0.381109756108376	218.395176135346
Chr7	9759609	9760125	517	19	0.0367383705321269	0.664575703893415	-0.627837333361288	-218.393025808002
Chr3	46554150	46554762	613	21	0.755484720777207	0.211192245869426	0.544292474907781	217.10828344872
NW_013657462.1	4138	4670	533	16	0.0310636728989481	0.665887188103928	-0.63482351520498	-216.428305766144
Chr2	26204	26930	727	22	0.779485503097685	0.172505376437818	0.606980126659867	215.762425236534
Chr3	3002257	3003048	792	25	0.353467988980447	0.89237653573467	-0.538908546754223	-215.486169741836
Chr7	8820506	8821277	772	17	0.117658512716015	0.853017768059174	-0.735359255343158	-215.012789987674
Chr6	7888389	7889402	1014	25	0.630577617913837	0.193813283066129	0.436764334847708	214.868001152308
Chr1	48031887	48032371	485	16	0.837470223479714	0.211512347033879	0.625957876445836	214.555381263551
Chr5	20861415	20862339	925	29	0.707610939997952	0.266978732548998	0.440632207448954	214.473950614833
Chr5	36662434	36662840	407	20	0.835472677613798	0.291140935661022	0.544331741952776	213.166068711737
Chr1	24534179	24534587	409	18	0.898584993953324	0.303324412984371	0.595260580968953	212.333347693807
Chr3	45821570	45822352	783	22	0.686574679108819	0.123770375331903	0.562804303776917	210.361997825069
Chr7	9195778	9196324	547	18	0.0862146680205866	0.698234690752671	-0.612020022732085	-210.257436106775
Chr4	37076625	37077188	564	28	0.311275706446202	0.72257040498687	-0.411294698540668	-208.750462963626
Chr8	767832	768406	575	22	0.101010761899735	0.577518222245446	-0.476507460345711	-208.742736596543
Chr5	18232379	18233054	676	25	0.166100594890833	0.664995596732507	-0.498895001841675	-208.561310436514
NW_013657072.1	4010	4763	754	24	0.302826479793706	0.799465161609639	-0.496638681815933	-207.99799424636
NW_013656859.1	1247	1606	360	29	0.0933786280961735	0.372869951435205	-0.279491323339031	-207.413709075075
Chr8	3565256	3565572	317	22	0.23769735302334	0.715103374165242	-0.477406021141902	-206.664325511299
Chr4	15159685	15160196	512	25	0.143150367129492	0.521045202532874	-0.377894835403381	-206.484780785385
Chr2	11336712	11337224	513	26	0.251423694331153	0.730749281160436	-0.479325586829283	-204.855318141359
Chr3	22134984	22135557	574	27	0.833728673223152	0.447529698210179	0.386198975012974	204.239358327425
Chr8	37928587	37929221	635	24	0.164684580502243	0.598037266572246	-0.433352686070003	-204.152625463548
Chr1	24667789	24668771	983	20	0.812946119189497	0.176828144019269	0.636117975170228	202.991652923689
Chr8	1108609	1109151	543	23	0.110859831958077	0.535568655801707	-0.42470882384363	-202.934516472951
Chr7	32790951	32791533	583	19	0.0761247101173537	0.643463424171229	-0.567338714053876	-201.841731796003
Chr2	9809810	9810249	440	20	0.509233429090309	0.0543544987296958	0.454878930360613	201.191113245753
Chr1	13088111	13088588	478	25	0.362214988261244	0.777019842792405	-0.414804854531161	-200.955616408943
Chr6	21466584	21467235	652	28	0.38408927616588	0.0328653694540631	0.351223906711817	200.475314282257
Chr5	9555759	9556292	534	14	0.903859108828351	0.248098348699481	0.65576076012887	200.268313348661
NW_013657531.1	31607	31995	389	18	0.148205766348377	0.752312613048439	-0.604106846700062	-200.193067935186
Chr8	24969606	24970332	727	23	0.651521680682758	0.144435397066201	0.507086283616558	199.829077516616
Chr7	18393906	18394448	543	25	0.406374215925793	0.815620539108023	-0.40924632318223	-199.34092513714
Chr8	1493548	1494059	512	26	0.42249155342444	0.78372449449988	-0.36123294107544	-199.188488552062
Chr4	54787338	54787528	191	14	0.905370136715477	0.239475089057504	0.665895047657973	196.956418664727
Chr5	27623734	27624592	859	21	0.838246490012005	0.316948735760317	0.521297754251689	196.811808773156
Chr1	30318536	30318998	463	16	0.694431719410574	0.0344433676983397	0.659988351712234	194.308037259011
Chr1	29887035	29887403	369	20	0.604421962766711	0.116564663488293	0.487857299278418	193.919400187468
Chr3	27202002	27202414	413	25	0.587367437296479	0.185760581717533	0.401606855578945	191.627695033982
Chr1	22376025	22376673	649	20	0.748106907609165	0.192465002593463	0.555641905015702	190.840173106343
Chr5	42529027	42529158	132	14	0.849886651204178	0.125053378246142	0.724833272958036	190.253698733981
Chr5	12024367	12024928	562	29	0.23812911266576	0.585258953438271	-0.347129840772511	-189.913906060535
Chr1	43572584	43573168	585	21	0.768754769410753	0.249959100619947	0.518795668790806	189.726864485266
Chr2	19185126	19185769	644	16	0.757294747197963	0.126258981125355	0.631035766072608	189.468709583117
Chr8	29319827	29320393	567	15	0.187023586708204	0.909345051060797	-0.722321464352593	-188.650046097055
Chr7	47873041	47874021	981	28	0.720338040082672	0.28496257884533	0.435375461237342	188.648467856518
Chr3	19481856	19483210	1355	27	0.667486220115356	0.125830044090713	0.541656176024642	188.448476951711
Chr1	45321892	45322465	574	21	0.801374605108434	0.296848952485664	0.50452565262277	187.84602870041
Chr2	39587612	39588223	612	28	0.750150895888157	0.412831922481805	0.337318973406352	186.505596135104
Chr6	18132764	18133428	665	20	0.345322843669777	0.819016761428183	-0.473693917758406	-185.956327163376
Chr3	40707611	40708221	611	27	0.627048268474506	0.212195325521667	0.414852942952839	185.867494363149
Chr3	5131832	5132313	482	18	0.789724642308006	0.178264010471481	0.611460631836525	185.708558813755
Chr2	7284755	7285251	497	28	0.047501696497764	0.404989554541631	-0.357487858043867	-185.453263738925
Chr5	24001241	24001807	567	19	0.605356016369453	0.0268151504659138	0.578540865903539	184.615893105418
Chr8	15088040	15088619	580	26	0.778225036560515	0.403842589131869	0.374382447428646	184.273145264764
Chr7	5794143	5794875	733	16	0.128350995935013	0.78731669755054	-0.658965701615527	-183.791943411688
Chr6	7863350	7863789	440	18	0.186075411760248	0.707012143596777	-0.520936731836529	-183.078230871012
NW_013657202.1	11144	11726	583	19	0.382239182516937	0.876051789359425	-0.493812606842488	-182.404398611584
Chr3	27618013	27618794	782	23	0.825060149744577	0.315797311837349	0.509262837907228	182.159270749167
Chr4	24765999	24766526	528	22	0.745310459121118	0.294714952572203	0.450595506548914	181.862070536259
Chr1	41338462	41339351	890	30	0.135890778313135	0.492588846748821	-0.356698068435686	-181.609818733509
Chr1	44600647	44601174	528	20	0.412221263630718	0.91723640494127	-0.505015141310551	-181.124317452977
NW_013657389.1	30114	30615	502	22	0.693004651198153	0.253055705917335	0.439948945280819	180.746087416033
Chr3	13651227	13651867	641	21	0.627331916569199	0.0979652421399164	0.529366674429283	180.167341947685
Chr7	9267587	9268299	713	25	0.529674809972825	0.103477544616988	0.426197265355838	179.380355457127
Chr2	29489757	29490170	414	21	0.164028354954862	0.640061425502751	-0.476033070547889	-178.544856744994
Chr1	15201013	15201574	562	20	0.794709282409702	0.295444285211098	0.499264997198604	177.921378437551
Chr7	9809854	9810455	602	28	0.043966949174026	0.307783491414969	-0.263816542240943	-177.141681209651
Chr2	2791709	2792440	732	23	0.170776190515214	0.620090458858861	-0.449314268343647	-176.823379099946
Chr1	45015283	45015781	499	20	0.913052393677605	0.515085927612174	0.397966466065431	176.512054845936
Chr4	6861345	6861766	422	21	0.430065878878587	0.849075245812384	-0.419009366933797	-176.473643179761
Chr3	27614820	27615274	455	15	0.732394291646098	0.0658167008791474	0.666577590766951	176.401934160996
Chr2	45457431	45457901	471	17	0.881951088304073	0.323939408041545	0.558011680262528	175.852817312838
Chr7	11482307	11482905	599	23	0.831622723948799	0.379046784707585	0.452575939241214	175.095503473581
Chr7	28782548	28783009	462	15	0.045579290726575	0.675052607758441	-0.629473317031866	-174.746934045159
Chr8	2923565	2924072	508	29	0.0490092444888549	0.337563433167602	-0.288554188678747	-174.419789045504
Chr7	22014383	22015121	739	25	0.481540834441182	0.856311630209116	-0.374770795767934	-173.767892196128
Chr1	38650647	38651132	486	22	0.43331456014797	0.0789127988825371	0.354401761265433	173.247631059951
Chr2	34567714	34568233	520	17	0.880156448315541	0.303261764086423	0.576894684229118	172.929824445008
Chr4	53262635	53263038	404	19	0.145216451299125	0.645249963858749	-0.500033512559625	-172.825482826553
Chr1	52661796	52662232	437	26	0.888523801565637	0.601148953208113	0.287374848357524	172.56209522108
Chr7	19257947	19258480	534	24	0.20004736080788	0.591081977369648	-0.391034616561767	-172.057413878711
Chr7	12620982	12621505	524	21	0.215361731929326	0.69479317620264	-0.479431444273313	-171.825487777823
Chr8	23413162	23413629	468	16	0.113024182945487	0.70857340668325	-0.595549223737763	-170.439541363874
Chr1	26459266	26459884	619	21	0.608829092458265	0.109712748548128	0.499116343910137	170.368983713674
Chr1	8844897	8845311	415	13	0.0884458407512451	0.728982628324818	-0.640536787573573	-170.11383522402
Chr3	22996219	22996858	640	26	0.0803368225191007	0.413375499742343	-0.333038677223243	-169.791508843564
Chr4	40874474	40875029	556	25	0.793087323069818	0.417689096739531	0.375398226330287	169.134999882774
NW_013657531.1	138618	138950	333	16	0.0849476939109293	0.625436555556714	-0.540488861645785	-168.592028896315
Chr7	8984093	8984714	622	18	0.810878025383818	0.258582433537588	0.55229559184623	168.067543671378
Chr1	30973862	30974322	461	26	0.243949530589636	0.620555072142481	-0.376605541552845	-167.882602974691
Chr7	12481277	12481737	461	21	0.208438233968094	0.622431183513748	-0.413992949545654	-167.794494850729
Chr8	14640706	14641423	718	18	0.892995821673856	0.296644640611025	0.596351181062831	167.753039216868
Chr3	31565918	31566475	558	21	0.497290016142076	0.0896361801571459	0.40765383598493	167.354337102843
Chr3	575240	575962	723	20	0.68060176415508	0.177926073561159	0.502675690593921	166.393028639958
Chr3	42728479	42729072	594	30	0.738808667595719	0.394364581896182	0.344444085699537	166.316204268758
Chr2	12960197	12960683	487	16	0.657797295131748	0.131548150581889	0.526249144549858	166.190237418715
Chr7	11251192	11251459	268	20	0.377709558421457	0.827495432344555	-0.449785873923098	-165.898982628257
Chr3	34522419	34522844	426	22	0.660173100212327	0.255514693830768	0.404658406381559	165.727887493085
Chr6	34627558	34627950	393	17	0.0929543504353032	0.543181314815557	-0.450226964380254	-163.963924543946
Chr1	1634885	1635545	661	17	0.797007207401314	0.248420288605993	0.548586918795321	163.793494143844
Chr1	13270235	13270700	466	17	0.786178220179357	0.269785132480773	0.516393087698585	163.567837366867
Chr8	43904269	43904784	516	21	0.524132374610849	0.117920604738674	0.406211769872175	163.487986609528
NW_013657341.1	1025	1453	429	22	0.293630628750636	0.725525185625167	-0.431894556874531	-162.845126036053
Chr4	22189435	22189848	414	15	0.191253563648536	0.782585027173238	-0.591331463524702	-162.706423142929
Chr3	41134398	41135373	976	20	0.917085151946218	0.323244712522335	0.593840439423883	162.25976068484
Chr7	25865638	25866359	722	16	0.136881637540907	0.744456478801427	-0.607574841260521	-161.712459853073
Chr1	12492258	12492812	555	21	0.621573038108545	0.180043793575246	0.441529244533299	161.093985367729
Chr3	12912239	12912709	471	24	0.18898562499155	0.53534775265277	-0.34636212766122	-160.786791595295
Chr5	11884154	11884746	593	21	0.575332399665482	0.0877362940634134	0.487596105602069	160.14246177907
Chr6	7895219	7895597	379	13	0.899364845605589	0.244546194727635	0.654818650877954	159.562771611442
Chr3	13083522	13083829	308	15	0.87071912950861	0.313170185152383	0.557548944356227	159.129558476415
Chr3	5528252	5528737	486	22	0.831292922896018	0.354519706233611	0.476773216662407	158.965488671933
Chr3	23429926	23430661	736	20	0.903957963828761	0.404701338507264	0.499256625321497	158.704500254203
Chr6	16457081	16457555	475	23	0.282269687239559	0.660144901491021	-0.377875214251462	-158.49552009007
Chr7	1220196	1220564	369	21	0.780910052262785	0.34845595579831	0.432454096464476	158.024922386301
Chr7	2338359	2339146	788	20	0.831735049454395	0.327272148671868	0.504462900782527	158.019869814372
Chr5	35975056	35975522	467	23	0.047653605295165	0.354112860684353	-0.306459255389188	-157.845282619801
Chr7	15560017	15560430	414	16	0.0743203744418866	0.639016825469569	-0.564696451027682	-157.197866259239
Chr7	45024806	45025329	524	14	0.732895795966138	0.103853686954385	0.629042109011753	156.88867878219
Chr2	27354275	27354672	398	21	0.439270228433343	0.0859523803498446	0.353317848083498	156.475241778401
Chr4	13727651	13728216	566	16	0.638727929653907	0.0781954884776515	0.560532441176256	156.003253026367
Chr6	12327248	12327634	387	16	0.21867820450021	0.766580546038913	-0.547902341538703	-155.484644900892
Chr8	15883945	15884379	435	22	0.826459136972999	0.433112938023699	0.3933461989493	155.425081662123
Chr6	28019461	28020315	855	24	0.650903467267145	0.208890663084607	0.442012804182539	155.097482080837
NW_013656782.1	4165	4761	597	26	0.12126104797117	0.392917305376423	-0.271656257405253	-154.086525757976
Chr2	15229085	15229708	624	23	0.070748623021677	0.371786572542715	-0.301037949521038	-154.022322630524
Chr6	16733042	16733576	535	20	0.331325067122571	0.790546396198935	-0.459221329076364	-153.541620345662
Chr4	12105503	12106028	526	17	0.250228075905999	0.80563441365933	-0.555406337753331	-153.37616915315
Chr7	36259589	36260135	547	19	0.801541695471576	0.306572605436795	0.494969090034781	153.128803151665
Chr8	43812378	43812882	505	16	0.704210939511628	0.159678707285168	0.544532232226459	153.078906223327
Chr2	10863432	10863768	337	17	0.03483100803952	0.511229938924881	-0.476398930885361	-153.061508835928
Chr5	4244827	4245248	422	19	0.28795937213527	0.746974443034226	-0.459015070898956	-152.911031752837
Chr6	8908566	8909147	582	20	0.296752898811824	0.776103486899812	-0.479350588087988	-152.772586241938
Chr1	12290066	12290888	823	21	0.668315384234956	0.16311313526249	0.505202248972466	152.725890745802
Chr4	24747830	24748227	398	21	0.825132220185054	0.412055084027879	0.413077136157175	152.219783941646
Chr2	39472842	39473304	463	24	0.403868943575751	0.0642165678996242	0.339652375676127	152.134962111099
Chr8	22622019	22622765	747	21	0.338355077679991	0.776554427149611	-0.43819934946962	-151.769652847166
Chr1	13196885	13197887	1003	16	0.210135473975482	0.828592696076439	-0.618457222100957	-151.536099795629
Chr7	6778391	6778775	385	25	0.527816187312279	0.805056974996451	-0.277240787684172	-150.899815682316
Chr8	4447717	4448195	479	12	0.882134272558391	0.245366228219803	0.636768044338588	150.824762252727
Chr4	12765735	12766284	550	20	0.170846614482175	0.590677906902819	-0.419831292420644	-150.71284166446
Chr4	2367042	2367593	552	24	0.42680363934675	0.0783042752034711	0.348499364143278	150.450754618496
Chr1	40708655	40709070	416	22	0.559013964775721	0.898089295166386	-0.339075330390665	-149.148273831181
Chr6	34095608	34095893	286	19	0.241458171365146	0.702654483220373	-0.461196311855227	-148.74864830922
Chr4	38822525	38822979	455	21	0.185734549215424	0.556697311733971	-0.370962762518547	-148.714875524276
Chr8	4413423	4414022	600	21	0.347828164607895	0.748267486469392	-0.400439321861497	-148.314392483185
Chr8	11920762	11921276	515	19	0.865786501610166	0.46081590404071	0.404970597569456	147.699242577368
NW_013657541.1	265520	265906	387	16	0.844274740310253	0.278686318197142	0.56558842211311	147.678680745807
Chr4	22809484	22809929	446	24	0.49647820602355	0.14594290621901	0.35053529980454	147.170221183252
Chr5	12077789	12078217	429	18	0.750158442068063	0.24341684209792	0.506741599970144	146.984410197704
Chr7	29442928	29443639	712	16	0.249665537804135	0.838429238548356	-0.588763700744221	-146.569111111234
Chr8	43115606	43115923	318	16	0.29470238962766	0.873479759175981	-0.578777369548321	-146.289322744305
Chr2	14994781	14995277	497	18	0.297796869867764	0.780325643629458	-0.482528773761694	-146.283451250148
Chr3	19164486	19164766	281	11	0.911577429365822	0.24965538614745	0.661922043218372	146.262191529886
Chr6	6834513	6835060	548	15	0.209514286603075	0.786434739125467	-0.576920452522392	-145.834588911595
Chr5	21139145	21139535	391	22	0.279103251002814	0.677786250351383	-0.398682999348569	-145.758816338971
NW_013657231.1	19242	19815	574	22	0.353385905704374	0.70575709214357	-0.352371186439196	-144.847295211795
Chr5	7405397	7405805	409	15	0.255133741203045	0.745107831229774	-0.489974090026729	-144.703226068972
NW_013657537.1	207017	207555	539	18	0.701715437755039	0.212021850603905	0.489693587151134	143.276533104619
Chr8	174253	174403	151	25	0.72716704462679	0.440711013025501	0.28645603160129	142.945130017151
Chr8	25384896	25385641	746	19	0.283915208099672	0.836019058844594	-0.552103850744922	-142.718288330126
Chr6	22540297	22540793	497	12	0.751081113618671	0.116176855889558	0.634904257729113	142.685653838724
Chr3	4122431	4122970	540	16	0.705107406469216	0.181864349871887	0.523243056597329	141.44706037452
Chr4	14191242	14192621	1380	24	0.422381866566513	0.131397386372944	0.290984480193569	141.403458348766
Chr3	6031333	6031811	479	17	0.752787498703084	0.269214593108779	0.483572905594305	141.213206734197
Chr2	29846571	29847051	481	20	0.392174740573375	0.798944878969145	-0.40677013839577	-141.085251639812
Chr3	21619811	21620280	470	17	0.823311170286692	0.312680906544921	0.51063026374177	140.992317194813
Chr2	31141916	31142337	422	18	0.586680126454701	0.173769981667402	0.412910144787299	140.69355821858
Chr4	25942092	25942500	409	19	0.163805438500042	0.586316881177719	-0.422511442677676	-140.531764939933
Chr3	16014474	16014851	378	17	0.903883771621084	0.448014706890556	0.455869064730527	140.399054393177
Chr7	37645992	37646737	746	21	0.609383414003829	0.206429521089181	0.402953892914647	139.887638843075
Chr6	8268827	8269317	491	18	0.092220318842311	0.542156779052339	-0.449936460210028	-139.731336378407
Chr8	35608621	35609102	482	20	0.25423885051833	0.634031843375207	-0.379792992856877	-138.862055527676
Chr1	31078318	31078665	348	15	0.481510466766174	0.0768093555340398	0.404701111232134	138.260183533357
Chr1	41488717	41489204	488	21	0.442546069858688	0.0898563633628024	0.352689706495886	137.958136767284
NW_013657548.1	1715	2254	540	16	0.0561093375960274	0.482579686922389	-0.426470349326362	-137.934171484661
Chr3	28077945	28078565	621	22	0.419655733452144	0.0485957527190317	0.371059980733113	137.773677849669
Chr1	50196333	50196878	546	21	0.486098394301778	0.113582977035043	0.372515417266735	137.447419859965
Chr3	34507540	34508419	880	16	0.802348045915872	0.169209404060434	0.633138641855437	136.982587409022
Chr5	66243	66575	333	21	0.75848851363346	0.40263530264489	0.35585321098857	136.865629016156
Chr8	7282677	7282983	307	24	0.164208592911911	0.427061100398812	-0.262852507486901	-136.640564645213
Chr7	34239711	34240134	424	15	0.660996421459131	0.142697242456091	0.51829917900304	136.518210736961
Chr3	21624767	21625132	366	24	0.679193039122968	0.367323013179377	0.311870025943592	136.515799270054
Chr5	38601128	38601596	469	26	0.826271148905582	0.550223120268574	0.276048028637008	135.911915275936
Chr4	19514370	19514808	439	12	0.0983050576162217	0.745333427344616	-0.647028369728395	-135.723217310847
Chr6	1135369	1135802	434	14	0.151695531445323	0.78810059421208	-0.636405062766756	-135.4334895734
NW_013657479.1	21791	22273	483	14	0.141258546664342	0.722363030369197	-0.581104483704856	-135.254532289496
Chr1	17735105	17735605	501	16	0.718497330884984	0.198800206305178	0.519697124579806	135.003048813672
Chr5	40882960	40883346	387	13	0.0942579573581142	0.652368325552049	-0.558110368193935	-134.287892865227
Chr3	7171467	7172080	614	24	0.446639020800791	0.15402883211192	0.292610188688871	134.259011780818
Chr6	22323917	22324489	573	12	0.771605580394139	0.088461261665278	0.683144318728861	134.204573973023
Chr3	32233970	32234250	281	22	0.522761715278655	0.180720784575437	0.342040930703218	133.6846800234
Chr1	27056313	27056678	366	20	0.806967131746417	0.433196597244481	0.373770534501936	133.07268700941
Chr4	7352678	7353378	701	19	0.724365914379367	0.262908278129361	0.461457636250006	133.039744361633
NW_013657225.1	710	1328	619	14	0.26678073907516	0.879352438598853	-0.612571699523693	-132.257141365295
Chr5	18574025	18574545	521	17	0.126749060170046	0.647682024592612	-0.520932964422566	-132.12132164572
Chr3	8893868	8894465	598	17	0.666318511386198	0.164181907963487	0.502136603422711	132.047187325083
NW_013657495.1	38305	38944	640	15	0.166496028132791	0.707508831495839	-0.541012803363048	-131.04070323646
Chr2	1346992	1347428	437	13	0.0935413629701276	0.665662714622259	-0.572121351652131	-130.417439332034
Chr4	50614691	50615245	555	19	0.249789176791986	0.662726461010553	-0.412937284218567	-129.846227698109
Chr3	14056571	14057238	668	20	0.426016695020368	0.0741280305867049	0.351888664433663	129.180844992698
Chr3	20533240	20533771	532	19	0.777191163220487	0.376833301698094	0.400357861522394	128.526177511181
Chr7	4833806	4834412	607	12	0.807272205646972	0.139014422673836	0.668257782973136	128.059763903027
Chr6	20614024	20614428	405	19	0.785615797118711	0.410565070702294	0.375050726416417	128.0350399824
Chr8	20077126	20077476	351	14	0.541238760533275	0.0771810124613909	0.464057748071885	127.983498715804
Chr4	20859781	20860327	547	19	0.114421686936155	0.569161500949297	-0.454739814013142	-127.965937322491
Chr4	18848865	18849548	684	16	0.0684572544747141	0.579011006298424	-0.51055375182371	-127.93566891513
Chr6	28156867	28157262	396	19	0.130137256371144	0.499254649662458	-0.369117393291314	-127.894633679944
Chr8	13706550	13706910	361	13	0.143894569591243	0.679357259524979	-0.535462689933736	-127.890181259886
Chr1	13443111	13443436	326	20	0.519875909647023	0.199629519706575	0.320246389940448	127.135921602756
Chr3	34506916	34507425	510	18	0.69224837066678	0.182252711039705	0.509995659627074	126.664255938752
Chr7	47372359	47372632	274	19	0.0835162851579131	0.40867542204982	-0.325159136891907	-125.863996370277
Chr4	22505850	22506150	301	18	0.261263787492653	0.662583963495594	-0.401320176002941	-125.524918296605
Chr5	22797046	22797521	476	17	0.251949652964533	0.665928510010156	-0.413978857045623	-125.443216507029
Chr5	34710657	34711122	466	13	0.197799687320498	0.745362714503881	-0.547563027183382	-124.924042538699
Chr1	22772306	22772617	312	21	0.535303835816338	0.213768865142395	0.321534970673943	124.886996357556
Chr7	23479174	23479697	524	21	0.30170200648758	0.644704562652002	-0.343002556164421	-124.866817295812
Chr4	40835983	40836293	311	14	0.298002483254169	0.77516366838789	-0.47716118513372	-124.717741496964
Chr8	22715283	22715746	464	20	0.788136408509275	0.481273027948039	0.306863380561236	124.590487326623
Chr3	2810838	2811221	384	26	0.589158545914717	0.284012930465075	0.305145615449642	124.457023547138
Chr1	31884650	31885150	501	14	0.672790468507043	0.132616990095282	0.540173478411761	124.256284214495
Chr3	10529863	10530337	475	15	0.678620452773782	0.159251042534669	0.519369410239112	124.139845572249
Chr8	29008282	29008591	310	26	0.252522499566733	0.0647019147210334	0.1878205848457	124.117988319834
Chr6	8833971	8834652	682	19	0.672368625810406	0.245657354533282	0.426711271277123	123.848640070853
Chr8	3819865	3820261	397	12	0.650262291451924	0.0552513127921467	0.595010978659778	123.813520157877
NW_013656896.1	6327	6677	351	16	0.0559701766236943	0.437833892562807	-0.381863715939113	-123.769663298621
Chr5	27259067	27259385	319	18	0.606792479527088	0.149037564317368	0.45775491520972	123.550459825702
Chr1	11383165	11384055	891	13	0.222759330009382	0.882846288417545	-0.660086958408163	-123.516920248558
Chr1	1719579	1719956	378	17	0.473078693498969	0.0835052539011935	0.389573439597775	122.723638636429
Chr1	29173046	29173383	338	14	0.222620718165853	0.750970094909366	-0.528349376743513	-122.635286006423
Chr7	16262745	16263096	352	17	0.734287462767578	0.280221287760244	0.454066175007334	122.39800322823
Chr7	19877497	19878102	606	18	0.913837215206527	0.558548408691839	0.355288806514688	122.222145399121
Chr8	26258095	26258475	381	25	0.376042725087252	0.120967780744851	0.255074944342402	122.194795265789
NW_013657531.1	143614	143825	212	18	0.256972335313454	0.62118771686338	-0.364215381549927	-122.175527692167
Chr5	41627004	41627587	584	20	0.688889041005103	0.237056526986532	0.451832514018571	121.996189066834
Chr7	9221321	9221836	516	17	0.239125410698397	0.716452048060494	-0.477326637362097	-121.963863028428
Chr4	9177277	9178020	744	18	0.829170131765657	0.354058609178747	0.47511152258691	121.470178281388
Chr3	17145498	17145918	421	17	0.796190067489405	0.416222198686483	0.379967868802922	120.412198250673
Chr5	35390147	35390719	573	17	0.230915006691203	0.674695651827334	-0.443780645136131	-120.019969728795
Chr8	17635404	17635995	592	16	0.700669037130126	0.223334817575561	0.477334219554565	119.962161749171
Chr7	18416774	18417050	277	16	0.81999668353468	0.380521402392273	0.439475281142407	119.792223434653
Chr3	23449976	23450342	367	21	0.700422679762783	0.379993284644599	0.320429395118185	119.657233709878
Chr2	4454263	4454840	578	19	0.603716130319815	0.233428329330331	0.370287800989484	118.826261403993
Chr5	27784731	27785170	440	16	0.0734856865538526	0.392134200506468	-0.318648513952616	-118.82359777155
Chr3	9452216	9453402	1187	16	0.493946841836824	0.0307298331687012	0.463217008668123	118.78823066249
Chr2	9759141	9759883	743	17	0.347964810166916	0.84656062902329	-0.498595818856373	-118.684391098844
Chr4	10796511	10796892	382	14	0.921896767085766	0.45650032070567	0.465396446380096	117.644948023518
NW_013657548.1	132835	133206	372	14	0.804689777340103	0.334186136420301	0.470503640919802	117.2929017901
Chr4	4118447	4118690	244	17	0.397440462695323	0.0696968094363357	0.327743653258987	116.506006097763
Chr8	4701635	4701938	304	14	0.110303113787885	0.646496209235133	-0.536193095447248	-116.48325165248
Chr4	6722037	6722532	496	14	0.201059251601622	0.733295030693372	-0.53223577909175	-116.453476319302
NW_013657524.1	56925	57301	377	14	0.200941654835898	0.688692313792791	-0.487750658956892	-116.317663076203
Chr3	10482453	10482666	214	16	0.294941752104913	0.734909958553501	-0.439968206448588	-116.229571836768
Chr2	27082882	27083388	507	16	0.385174274539073	0.853055851471535	-0.467881576932462	-116.044309123638
Chr1	52909442	52909950	509	19	0.768496119392114	0.354425555739536	0.414070563652578	115.882549324249
Chr3	18070088	18070616	529	11	0.686509766324572	0.0671343637546128	0.619375402569959	115.84268128755
Chr5	5010096	5010338	243	11	0.707974953023718	0.123514681774931	0.584460271248787	115.786725068321
Chr4	8396510	8396907	398	16	0.846108101043857	0.42045846813557	0.425649632908287	115.762493833431
Chr5	41842710	41842989	280	14	0.257671506318787	0.803102531472399	-0.545431025153612	-115.672448395426
Chr2	20038191	20038632	442	15	0.568488509021223	0.093717759225185	0.474770749796038	115.361029041968
Chr8	27812229	27812641	413	19	0.155929179156063	0.485837299776119	-0.329908120620057	-114.72747157737
Chr4	16167010	16167489	480	15	0.216227625839325	0.645651046430906	-0.429423420591581	-114.426780946387
Chr1	3393861	3394440	580	13	0.352259837782604	0.900456957822771	-0.548197120040166	-114.381081528094
Chr3	8867143	8867615	473	12	0.719210406671861	0.0964926188908526	0.622717787781009	114.269824151536
Chr2	42272011	42272510	500	19	0.619838679593194	0.237875213728841	0.381963465864352	114.174191030527
Chr1	18497395	18498307	913	14	0.273919911429599	0.911515390500331	-0.637595479070732	-113.955709944894
Chr4	20370347	20370761	415	14	0.156868278868851	0.569183454457964	-0.412315175589113	-113.681415646687
Chr2	14994103	14994634	532	18	0.203209197007894	0.646314981753593	-0.443105784745699	-113.602343111667
Chr8	30785958	30786331	374	15	0.143557961147218	0.614747182317689	-0.471189221170471	-113.427167495557
Chr6	8623903	8624236	334	16	0.0463273173682418	0.329718348444349	-0.283391031076108	-113.082629974093
Chr7	37026872	37027345	474	20	0.192280357113048	0.465339852058714	-0.273059494945665	-112.986029732207
Chr3	8054236	8054693	458	14	0.600632738135603	0.143055242354212	0.457577495781391	112.879562691255
Chr8	8392968	8393095	128	11	0.300138391759298	0.903639758860357	-0.603501367101059	-112.723379176621
NW_013657516.1	99325	99480	156	16	0.296469717982047	0.717696383851068	-0.421226665869021	-112.320980604719
Chr1	12190940	12191341	402	18	0.0786129227633457	0.38120635323134	-0.302593430467994	-112.183549433448
Chr4	41828545	41828915	371	11	0.921659088506328	0.282377987156625	0.639281101349703	111.931063187154
Chr3	10033097	10033562	466	14	0.556177768723654	0.107852618238202	0.448325150485452	111.921782451343
NW_013657516.1	99069	99216	148	14	0.394272898289109	0.77809199791303	-0.383819099623921	-111.909632027695
Chr7	30379055	30379614	560	12	0.282016240530625	0.912342566362836	-0.630326325832211	-111.667775543169
Chr7	8365378	8365792	415	15	0.106614000032619	0.613298946438087	-0.506684946405468	-111.621781494819
Chr6	11466079	11466221	143	26	0.312911056932699	0.536376127035787	-0.223465070103088	-111.371135773364
Chr3	13369786	13370120	335	12	0.735927063899774	0.178893696547212	0.557033367352563	111.235684806007
Chr4	55078696	55078886	191	14	0.553830104311414	0.0941680721434012	0.459662032168013	111.088324068913
Chr1	31488786	31488934	149	25	0.490223303445062	0.717204619873149	-0.226981316428088	-110.792519782333
Chr4	10820024	10820537	514	15	0.692373491893403	0.194148818476273	0.498224673417131	110.739417148762
Chr3	50154055	50154408	354	18	0.67167205796022	0.268837861369437	0.402834196590783	110.653628479414
Chr8	8048763	8049158	396	14	0.875223869835445	0.394936199882434	0.480287669953011	110.193611009787
Chr6	3582291	3582840	550	14	0.684412524370111	0.178351663053475	0.506060861316636	109.813858066625
Chr2	5413495	5413984	490	20	0.507505430305012	0.166101441353232	0.34140398895178	109.330533966257
Chr3	5287961	5288309	349	21	0.864647581303562	0.65832355799457	0.206324023308992	109.315056715288
Chr2	3305048	3305516	469	13	0.887871792628328	0.353550676429979	0.534321116198349	109.291889297709
Chr4	25482992	25483225	234	20	0.0440395331450832	0.258442366602092	-0.214402833457009	-109.150114496493
Chr4	3551015	3551582	568	17	0.707819798422321	0.336314421579048	0.371505376843273	108.71836602835
Chr4	3478316	3478819	504	13	0.290971708309256	0.830138815128887	-0.539167106819632	-108.652629344709
Chr1	28918589	28919021	433	12	0.947475970974877	0.374911138820228	0.572564832154649	108.546991081714
Chr2	17093723	17094109	387	16	0.909247868177226	0.556679443300984	0.352568424876242	108.371557875975
Chr7	44942571	44942887	317	11	0.158846161274983	0.775178772464338	-0.616332611189355	-108.366681262188
Chr1	6528091	6528629	539	14	0.324022964650565	0.842620783547334	-0.518597818896769	-108.306810252519
Chr6	17094366	17095032	667	13	0.120332634676002	0.67086084731888	-0.550528212642878	-108.24811758784
Chr3	3001816	3002007	192	17	0.547802006386533	0.804681554179415	-0.256879547792882	-108.088566903365
Chr8	14329004	14329352	349	18	0.846860403128398	0.517838893403705	0.329021509724693	107.994922649741
Chr2	17853789	17854186	398	16	0.649763134501507	0.278030537469951	0.371732597031556	107.311863805611
Chr1	39012793	39013298	506	21	0.0904633248396693	0.413960849637014	-0.323497524797345	-107.187706613784
Chr4	1486423	1486901	479	13	0.094647469293808	0.593826714461132	-0.499179245167324	-107.107480207775
Chr6	17167	17474	308	15	0.774395722197135	0.404218879586893	0.370176842610241	106.999618973981
Chr8	17703518	17703897	380	16	0.415796130643938	0.827089781461157	-0.411293650817219	-106.893687282496
NW_013656782.1	3030	3533	504	19	0.185267496031611	0.462805241191267	-0.277537745159657	-106.742522051208
Chr5	32856465	32856940	476	14	0.654722460855291	0.166975070041817	0.487747390813473	106.505917545193
Chr4	50380758	50381045	288	13	0.159261376457943	0.656003165290446	-0.496741788832503	-106.395132335529
Chr5	34283435	34283950	516	14	0.648486102145883	0.179132426024351	0.469353676121532	106.348390830222
Chr4	55063513	55063867	355	18	0.146310990323585	0.503006767752352	-0.356695777428766	-105.891715793719
Chr8	26943904	26944246	343	15	0.0753714481363904	0.462202957234666	-0.386831509098276	-105.817153286918
Chr5	25799933	25800216	284	20	0.526876370200967	0.80942281375392	-0.282546443552953	-105.299843633452
Chr8	3160236	3160731	496	19	0.422297389352264	0.109340565532974	0.31295682381929	105.221759151537
Chr2	20463062	20463483	422	17	0.322173052569663	0.740778564929525	-0.418605512359863	-105.132932361427
Chr3	24564663	24564984	322	15	0.379620059557828	0.797388903158049	-0.41776884360022	-104.869966726648
Chr2	30009472	30009986	515	15	0.554397317266103	0.146485848675447	0.407911468590656	104.757725526599
Chr2	34563877	34564298	422	17	0.547592834763158	0.914693601103375	-0.367100766340218	-104.585168966281
Chr3	31974380	31974678	299	11	0.778010252640173	0.183692401572967	0.594317851067206	104.505176501688
Chr4	9266128	9266479	352	14	0.450069061640794	0.8397974463325	-0.389728384691707	-104.386105716368
Chr6	4602030	4602467	438	19	0.114665766294479	0.422696682364779	-0.3080309160703	-104.218440647287
Chr8	41695305	41695675	371	15	0.133278435312258	0.552133164953585	-0.418854729641327	-104.004212378391
Chr4	29608984	29609293	310	13	0.23626268306927	0.788620768839681	-0.552358085770411	-103.990424450557
Chr1	26627988	26628568	581	17	0.913541010607582	0.47717914499052	0.436361865617062	103.663425416475
Chr3	1539743	1540066	324	18	0.498998497623034	0.848733345844035	-0.349734848221001	-103.451082262742
Chr4	13314213	13314685	473	18	0.126939985218096	0.430827657781018	-0.303887672562922	-103.29169052107
Chr7	42859952	42860432	481	14	0.157846363460981	0.621685248722135	-0.463838885261154	-103.281335554826
Chr3	5911749	5912048	300	20	0.480848669313849	0.774633699370597	-0.293785030056747	-103.255759286865
Chr4	50109407	50109744	338	21	0.360402672786192	0.124343294698796	0.236059378087396	102.45061452871
Chr3	23015419	23015753	335	15	0.490877989361265	0.0803928113092575	0.410485178052007	102.273883204646
Chr3	18967161	18967714	554	14	0.899866793773479	0.461514335954368	0.438352457819112	102.039817271064
Chr2	42258593	42258968	376	12	0.699852709454888	0.12361620210902	0.576236507345868	101.626498454483
Chr7	23019238	23019579	342	11	0.330082532560672	0.871306357676309	-0.541223825115637	-101.010467192436
Chr8	26358069	26358448	380	16	0.685296223180921	0.323286276494351	0.36200994668657	100.446789857137
Chr3	18117656	18118272	617	13	0.78506763898961	0.254543905082312	0.530523733907298	100.317921515443
Chr1	9017135	9017429	295	16	0.611443907664282	0.207657401757999	0.403786505906284	100.046323034011
Chr4	6606838	6607195	358	16	0.119456710179625	0.480898774302722	-0.361442064123097	-99.7682434543916
Chr3	22441992	22442683	692	15	0.752231691558203	0.247394480881266	0.504837210676937	99.6864083164598
Chr2	13853500	13853920	421	18	0.44959827238192	0.0823204861971812	0.367277786184739	99.5369306104118
Chr3	4701678	4702144	467	15	0.357124370144842	0.0549194137393451	0.302204956405497	99.4109320144538
Chr7	29924963	29925250	288	17	0.118494241431775	0.362433251179465	-0.24393900974769	-99.3175174674155
Chr3	16081756	16082198	443	11	0.912637336526914	0.367361027734197	0.545276308792717	99.2901271931823
NW_013657516.1	101375	101642	268	16	0.258571767160938	0.707908445889623	-0.449336678728685	-99.1682991537573
Chr7	3611148	3611489	342	17	0.0411167077450861	0.363124475160231	-0.322007767415145	-98.9948663910286
Chr4	4343300	4343935	636	14	0.702034744075101	0.234411474186714	0.467623269888388	98.8216328739749
Chr8	24392826	24393238	413	13	0.188712029959542	0.679023001431143	-0.490310971471602	-98.744855871057
Chr5	39903477	39903654	178	12	0.698894735980934	0.180742424334597	0.518152311646337	98.3498879094873
Chr1	11388889	11389254	366	18	0.480601756229686	0.796123544658345	-0.315521788428659	-98.2547121329969
Chr6	17039504	17039971	468	16	0.370860044236232	0.755501829257171	-0.38464178502094	-98.1160939165035
Chr2	2690486	2690945	460	16	0.454791802091822	0.0807935251328098	0.373998276959012	98.0303008710896
Chr4	49312490	49312975	486	19	0.885330877456025	0.615007276397043	0.270323601058982	97.7278638439118
Chr3	32655638	32656574	937	15	0.887875718953561	0.385970132000046	0.501905586953515	97.7170656239544
Chr3	8041029	8041478	450	16	0.407791320141445	0.753212165203755	-0.34542084506231	-97.4144365469037
Chr2	20462742	20462999	258	13	0.245114752541727	0.64145149747034	-0.396336744928612	-97.3457647954704
NW_013657070.1	5552	5891	340	14	0.803875287472187	0.265553547487566	0.538321739984621	97.2721625125863
Chr8	1283614	1283950	337	11	0.730945416806508	0.16998175366659	0.560963663139917	97.2287260948331
Chr8	1067651	1068303	653	13	0.687607761648198	0.185791584347124	0.501816177301073	97.1478355763958
Chr1	36365437	36365917	481	14	0.667165151849761	0.206809374321688	0.460355777528073	97.1078206394843
Chr4	41327865	41328824	960	13	0.196948592924259	0.706988306412658	-0.510039713488399	-97.0771192916291
Chr4	5084684	5085124	441	16	0.497171082600934	0.828592951759373	-0.331421869158439	-97.0686175660561
Chr7	37706813	37707128	316	13	0.287348995863176	0.779977503426306	-0.492628507563131	-96.6992370332891
Chr2	42914315	42914652	338	14	0.858913353932398	0.416924094841496	0.441989259090902	96.4804356341932
Chr3	18095786	18096063	278	13	0.734868159993275	0.231402036239988	0.503466123753287	96.4320599417979
Chr3	2949994	2950160	167	16	0.819859216568051	0.527820455679919	0.292038760888132	96.4030303743904
Chr3	26925793	26926060	268	12	0.634397035221053	0.153405378624002	0.480991656597051	95.8743671860795
Chr4	6536844	6537173	330	12	0.0422686816498865	0.503824813017219	-0.461556131367332	-95.7816030021494
Chr3	3811660	3812146	487	16	0.101284967403883	0.495958564065938	-0.394673596662055	-95.594088239052
Chr7	5725366	5725681	316	12	0.289517132225314	0.797112846355089	-0.507595714129775	-95.2973492978683
Chr4	326230	326670	441	14	0.180955581493287	0.553869855198088	-0.3729142737048	-94.9445852601255
Chr1	6103687	6103901	215	17	0.304741739779525	0.062583251713709	0.242158488065816	94.9346506059337
Chr3	22467104	22467805	702	13	0.757841931768269	0.219057166188852	0.538784765579418	94.8403354933539
Chr4	11883636	11884153	518	13	0.461179800276784	0.918250633198074	-0.45707083292129	-94.442214434524
Chr1	15814964	15815425	462	17	0.404630410067708	0.781737720748537	-0.377107310680829	-94.3891600915133
Chr3	1844753	1845088	336	14	0.363036304400957	0.787439965298899	-0.424403660897941	-94.3792560178844
Chr4	24761435	24761843	409	13	0.292264781654878	0.810339211566563	-0.518074429911686	-94.3267611237242
Chr8	23222033	23222189	157	18	0.784351582184804	0.513041870673766	0.271309711511038	93.8814883079013
Chr7	29118091	29118649	559	18	0.0645603135375125	0.337211148121405	-0.272650834583892	-93.8222479505287
Chr4	55803766	55804669	904	14	0.665044574889017	0.131434116970885	0.533610457918132	93.6361468199276
Chr1	40778917	40779340	424	11	0.677093511031412	0.182974613690414	0.494118897340998	93.1160157200962
Chr5	11837980	11838394	415	14	0.31476272576777	0.765410569249097	-0.450647843481327	-93.0566961535288
Chr4	31446391	31446847	457	14	0.439657356008234	0.0688878855260385	0.370769470482196	92.9589183675355
Chr3	14994340	14994734	395	14	0.339090642986001	0.736024390923841	-0.396933747937839	-91.6378255973699
Chr5	7960393	7960810	418	11	0.385578262808978	0.921409114912778	-0.5358308521038	-91.5978879674435
Chr8	6641053	6641366	314	15	0.355982840328988	0.745804621893495	-0.389821781564507	-91.5694367075404
Chr3	35446476	35446712	237	15	0.367894017765265	0.0422908426437597	0.325603175121506	91.39352549426
Chr8	32291659	32291995	337	16	0.471154955027121	0.144015666381719	0.327139288645402	91.2264457304187
Chr8	14748219	14748544	326	12	0.139844207335549	0.727037878155055	-0.587193670819506	-91.1753422361205
Chr3	14907149	14907287	139	15	0.495738779645153	0.784728695251401	-0.288989915606248	-91.0733219208678
Chr8	12246447	12246945	499	16	0.182937750369248	0.585938806278401	-0.403001055909152	-91.0427716607793
Chr8	16051885	16052122	238	12	0.333931675974675	0.81911634769488	-0.485184671720205	-90.9361328810464
Chr8	14664274	14664724	451	16	0.767907748463288	0.387322310204654	0.380585438258634	90.6213994373321
Chr8	23119148	23119479	332	13	0.889047868777629	0.519975112906278	0.36907275587135	90.4953504111086
Chr3	22447321	22447631	311	14	0.854273699466848	0.494053630096078	0.360220069370771	90.3053499102416
Chr8	8042050	8042496	447	17	0.69685594082143	0.344066219360541	0.352789721460889	90.0691601609483
Chr4	33620395	33620693	299	17	0.830332152603454	0.535554464234961	0.294777688368493	89.5376761318742
Chr3	31375601	31376034	434	14	0.47139358303792	0.0860246690480888	0.385368913989831	89.5363430663264
Chr3	42094653	42095062	410	15	0.0786812379335997	0.364319314866122	-0.285638076932522	-88.8529611310366
Chr3	18031578	18031928	351	14	0.379115480282777	0.0543840593454461	0.324731420937331	88.7906407188169
Chr8	9782613	9783018	406	14	0.103752473177375	0.49952290251977	-0.395770429342396	-88.6977497402656
Chr7	44178041	44178383	343	12	0.663396369101994	0.173340356589041	0.490056012512953	88.3342780538513
Chr5	40203739	40203956	218	13	0.318137502746393	0.0235318463269412	0.294605656419452	88.236226009273
Chr4	56576491	56576784	294	15	0.518289467815583	0.175841113885059	0.342448353930524	88.0661037472295
Chr6	18399963	18400466	504	15	0.466544226815777	0.867877943891628	-0.401333717075851	-87.9805343438254
Chr8	7415527	7415860	334	15	0.273631585473781	0.648831426822264	-0.375199841348483	-87.8916959157898
Chr6	34281450	34281816	367	14	0.134752782620912	0.518449898856102	-0.38369711623519	-87.8634629454627
Chr5	33115783	33116060	278	12	0.455588313353964	0.886033660918381	-0.430445347564418	-87.6294368258318
Chr4	50806265	50806604	340	13	0.747091822301278	0.333486495171608	0.413605327129669	87.5829655327916
Chr8	34225091	34225543	453	12	0.73687484883745	0.235591785128238	0.501283063709212	86.8968811279167
Chr2	24241532	24241782	251	16	0.428092200247569	0.711435809403221	-0.283343609155652	-86.8547189176746
Chr6	5036520	5037155	636	12	0.698647927758133	0.201648879065729	0.496999048692404	86.6148692458179
Chr3	2747011	2747294	284	16	0.867968950336937	0.508401729881289	0.359567220455648	86.5798333892425
Chr3	8062748	8063054	307	16	0.360270607289214	0.0970231012244943	0.26324750606472	86.4631282539521
Chr7	29326594	29326904	311	11	0.686621564791032	0.117354623842612	0.56926694094842	86.3725785515151
Chr3	54217381	54217636	256	13	0.582237097731023	0.152946246068988	0.429290851662035	86.201004646466
Chr6	21054097	21054281	185	14	0.426792666796495	0.0920003620878377	0.334792304708657	86.198467430104
NW_013657415.1	16671	17047	377	11	0.255492306961354	0.791912477719431	-0.536420170758077	-86.1791587603578
Chr2	37787971	37788122	152	15	0.787638405058492	0.543568516220508	0.244069888837985	86.0920250756492
Chr4	20982177	20982395	219	16	0.0743754974761766	0.26568574377656	-0.191310246300384	-85.9569461377379
Chr7	32790208	32790456	249	16	0.0428989824620281	0.292715958875391	-0.249816976413363	-85.7196940205157
Chr8	27453234	27453682	449	14	0.584314571550448	0.152940826924227	0.431373744626222	85.7189985516698
NW_013657543.1	116155	116530	376	14	0.405632715545408	0.108638405864878	0.29699430968053	85.6106046080375
Chr7	3258262	3258667	406	15	0.572138116827633	0.231919648213168	0.340218468614465	85.2493618916602
Chr4	20862883	20863196	314	15	0.165762060743304	0.494804149762258	-0.329042089018954	-85.2152185517523
Chr1	29671272	29671596	325	14	0.473411084997661	0.147961829713898	0.325449255283762	85.0646376878121
Chr1	1209826	1210231	406	14	0.294034307719015	0.675128035808977	-0.381093728089961	-85.0555517680472
Chr1	30472813	30473162	350	11	0.852178335758477	0.265772142262826	0.586406193495651	84.9004193175127
Chr8	31581387	31581737	351	11	0.274191191108868	0.859814696713632	-0.585623505604765	-84.5966472206406
Chr1	22809450	22809847	398	15	0.216160404668556	0.570620102230278	-0.354459697561722	-84.4720112392269
Chr4	1095830	1096318	489	14	0.221991579791848	0.601680849130485	-0.379689269338637	-84.4023094131978
Chr7	3282877	3283084	208	13	0.557052847722029	0.209193515727805	0.347859331994224	84.401045465053
Chr1	46615536	46615914	379	14	0.6021073444042	0.247056919928598	0.355050424475602	84.0618861978461
Chr7	18791906	18792127	222	15	0.805301060848753	0.445281854744531	0.360019206104222	83.8485816013148
Chr5	43564062	43564303	242	16	0.938604397289688	0.783689336016751	0.154915061272938	83.8239173596647
Chr2	27954795	27955071	277	16	0.099087974894432	0.270094551367328	-0.171006576472896	-83.2403796102534
Chr2	15731711	15732629	919	13	0.708232625861174	0.269736530332835	0.43849609552834	83.1640649977985
Chr3	31936191	31936431	241	11	0.57374087785288	0.0851698327445115	0.488571045108368	82.9971118445296
Chr3	5928167	5928339	173	18	0.0738166971248024	0.282000117056916	-0.208183419932114	-82.8708959530971
Chr1	14492691	14492866	176	12	0.538562073503784	0.0999517638137759	0.438610309690008	82.5227911637579
Chr4	33225810	33226252	443	13	0.271093854775074	0.692543251085788	-0.421449396310714	-82.5139389215403
Chr5	21766424	21766774	351	18	0.541565990463679	0.823001515035838	-0.281435524572159	-82.320710122889
Chr6	10006196	10006643	448	11	0.660197983693134	0.184949842793646	0.475248140899488	81.9749184542644
Chr1	8328462	8328904	443	13	0.824402955448831	0.375924432505579	0.448478522943252	81.8842882633062
Chr3	51870812	51871135	324	13	0.0994967708834742	0.483559396723444	-0.38406262583997	-81.7818701601346
Chr5	5115833	5116232	400	11	0.831397671824853	0.353569850570357	0.477827821254496	81.7591370762374
Chr1	24433131	24433326	196	11	0.578541444325034	0.0714256030505926	0.507115841274441	81.7473160450711
Chr2	30277281	30277685	405	14	0.488173820454229	0.150044283355461	0.338129537098768	81.6576342857339
Chr5	5358194	5358660	467	13	0.207430950180762	0.65740983607393	-0.449978885893168	-81.482523865308
Chr2	22889281	22889677	397	12	0.772448893275813	0.293201078104549	0.479247815171264	81.4685517502409
Chr8	12036476	12036799	324	12	0.671327710211273	0.199970732137092	0.471356978074181	81.3151160653088
Chr3	37862982	37863225	244	16	0.297571068632451	0.0738216227998307	0.22374944583262	81.2473884184021
Chr6	8883678	8884016	339	13	0.513177568119163	0.117056685303685	0.396120882815478	81.2406796394822
Chr4	5138608	5138947	340	17	0.540879286810388	0.229272284507589	0.3116070023028	81.1508148876543
Chr4	33834262	33834590	329	15	0.945164414055579	0.742524502286387	0.202639911769192	81.1366955510561
Chr1	24283026	24283369	344	13	0.825411330900552	0.439549845112755	0.385861485787796	81.0853208751941
Chr7	20060218	20060531	314	14	0.204727868960576	0.542183809807426	-0.33745594084685	-81.0259034106162
Chr4	31666888	31667205	318	15	0.123745757374923	0.432209651065754	-0.308463893690831	-80.985858980816
Chr7	33318592	33318965	374	11	0.209369959711128	0.733085002996796	-0.523715043285668	-80.7175203159168
Chr8	25038666	25039123	458	13	0.212409264996471	0.609719747861976	-0.397310482865505	-80.581182257949
Chr5	7569185	7569643	459	13	0.163806057943133	0.551798443471614	-0.387992385528481	-80.5113976410727
Chr6	22870448	22871383	936	14	0.24780137020699	0.691531233012096	-0.443729862805106	-80.4746188524566
Chr2	20137362	20137797	436	13	0.10356292406327	0.514799623648682	-0.411236699585412	-80.4210813521099
Chr2	17987366	17987820	455	13	0.186583648645099	0.588976697806622	-0.402393049161523	-80.3429498452548
Chr1	9455572	9455852	281	11	0.664014971665123	0.181005653308999	0.483009318356123	80.3042090732311
Chr1	22012070	22012176	107	13	0.0458525952162374	0.337894771920932	-0.292042176704694	-80.2838781231875
Chr7	27958942	27959320	379	11	0.573511875388146	0.0787637091801678	0.494748166207978	80.1382558632976
Chr7	1353952	1354249	298	13	0.85719928634934	0.469178064902202	0.388021221447138	79.9885467909979
Chr1	6392069	6392479	411	11	0.0541668021499244	0.489020857152268	-0.434854055002343	-79.690837885611
NW_013657161.1	12532	12875	344	13	0.404187891531882	0.816869349751452	-0.41268145821957	-79.4886714587288
Chr7	31447109	31447434	326	11	0.0920322161110451	0.598734080390342	-0.506701864279297	-79.3340782264108
Chr3	34090147	34090405	259	11	0.876049350868636	0.429423266655669	0.446626084212967	79.0667412068878
Chr4	34447283	34447449	167	14	0.108835185161897	0.36545090812381	-0.256615722961913	-79.0035673300015
Chr4	44762344	44762585	242	12	0.83284384858906	0.556242982718896	0.276600865870164	78.820486004359
Chr2	30900416	30900783	368	11	0.353120078629895	0.878659047822215	-0.525538969192321	-78.7677321239653
Chr3	19177913	19178160	248	13	0.404293123998057	0.743756399815669	-0.339463275817612	-78.4807504416013
Chr3	23288464	23288923	460	13	0.344960975444123	0.0303199620742248	0.314641013369898	78.2943881699142
Chr6	27614176	27614481	306	14	0.726135791227224	0.350484161837232	0.375651629389992	77.9407651801385
Chr1	13083752	13084182	431	11	0.229943596317804	0.774156811005687	-0.544213214687883	-77.8178525592926
Chr6	31445663	31446101	439	14	0.65342714064025	0.319958898660409	0.33346824197984	77.7486138149985
Chr7	46374001	46374234	234	13	0.836354338510248	0.442865461578357	0.393488876931891	77.6426141404081
Chr4	49945059	49945701	643	11	0.826271974147927	0.319914620757412	0.506357353390514	77.4864609235517
Chr6	18700114	18700386	273	11	0.807407487012551	0.277211620050491	0.53019586696206	77.4590854047017
Chr3	20890292	20890462	171	11	0.109706078623272	0.44816592386886	-0.338459845245588	-77.443271784416
Chr4	10346351	10346679	329	14	0.679397732576704	0.321267574721138	0.358130157855566	77.4025587807985
Chr3	19823461	19823730	270	12	0.257764951679116	0.637053570435594	-0.379288618756477	-77.2560429034493
Chr7	48577710	48578181	472	16	0.671337788830598	0.368089785596306	0.303248003234292	77.2211215570411
Chr8	29678091	29678356	266	13	0.414681274782739	0.0880349210304042	0.326646353752335	77.0670993507349
Chr8	37695250	37695534	285	17	0.294275864523957	0.0631018302103175	0.23117403431364	76.9416108719223
Chr1	43637075	43637312	238	14	0.931200393944593	0.594227024744935	0.336973369199658	76.8757359860818
Chr7	18940952	18941161	210	12	0.724978456303227	0.382757641564571	0.342220814738657	76.8692702058512
Chr2	19316075	19316403	329	12	0.260383541822102	0.698233438478319	-0.437849896656216	-76.8489923976686
Chr2	5412536	5412982	447	11	0.769379420978532	0.292729659314425	0.476649761664107	76.6956998879156
Chr8	24194970	24195296	327	12	0.742670014902236	0.298951197706392	0.443718817195844	76.5781324384854
Chr6	6397168	6397657	490	11	0.0769336865707298	0.626177936649599	-0.549244250078869	-76.5645856608418
Chr1	17592709	17592864	156	11	0.522639281447744	0.172243439775078	0.350395841672666	76.3246367207955
Chr8	26814219	26814592	374	13	0.112120388962931	0.438903241218815	-0.326782852255883	-76.2320026080417
Chr7	26366637	26366909	273	12	0.738373209897157	0.354050044044768	0.384323165852389	76.1278474107862
Chr2	15381968	15382183	216	15	0.431369105132484	0.759788498010727	-0.328419392878243	-75.9344069796052
NW_013657516.1	50353	50609	257	13	0.0946577696132697	0.632154862001147	-0.537497092387877	-75.861758375831
Chr8	36014124	36014401	278	11	0.129830668002999	0.637916829447894	-0.508086161444894	-75.6372791102395
Chr1	6188494	6188979	486	15	0.536487497839646	0.210922391512633	0.325565106327013	75.4106017351106
Chr1	40308047	40308583	537	12	0.742984302801474	0.281128028598012	0.461856274203462	75.1219391566117
Chr3	47422195	47422495	301	12	0.449315776109752	0.846206235529489	-0.396890459419737	-74.9456077933724
Chr1	479173	479512	340	13	0.380723956933229	0.76866313221927	-0.387939175286041	-74.8250081252195
Chr6	35210780	35211182	403	11	0.235979446437384	0.717462367194021	-0.481482920756637	-74.7818548641554
Chr4	34986732	34986980	249	13	0.118814770074279	0.429001483865859	-0.31018671379158	-74.5900842588932
Chr1	25516578	25516992	415	13	0.920405576878664	0.566385020783009	0.354020556095655	74.5246982889388
Chr4	50959939	50960356	418	13	0.191406575911179	0.569430855409314	-0.378024279498135	-74.1829180004321
NW_013657143.1	13862	14039	178	12	0.921328260347511	0.604558609888961	0.31676965045855	74.1668809150493
Chr3	7426222	7426592	371	12	0.617635948081278	0.228800757512103	0.388835190569175	73.9318963719644
Chr7	19417203	19417581	379	15	0.561219401675588	0.878923862033176	-0.317704460357588	-73.8216255406257
Chr4	4506491	4506764	274	13	0.121042806215501	0.415141934995923	-0.294099128780422	-73.4947095232668
Chr1	12005539	12005843	305	12	0.721703517823298	0.307284114463169	0.414419403360129	73.4041498418435
Chr3	7413948	7414341	394	12	0.537251657334507	0.0935443844342969	0.44370727290021	73.3550332473144
Chr1	17310013	17310253	241	13	0.684146963035469	0.301224350195939	0.38292261283953	73.3055927761514
Chr6	7979021	7979321	301	11	0.174324179654981	0.548156609348809	-0.373832429693828	-73.2127407931615
Chr3	47610874	47611104	231	14	0.354542266107994	0.0447038656006142	0.30983840050738	72.9397899441707
Chr7	34077366	34077620	255	13	0.816488785860847	0.47191063637507	0.344578149485777	72.8725077948215
Chr1	42527534	42527752	219	15	0.832522531150278	0.597362367751641	0.235160163398636	72.8389420309498
Chr4	45961437	45961734	298	14	0.0856919975734945	0.387175334735938	-0.301483337162444	-72.7707021313634
Chr2	24821	25014	194	14	0.900574077309382	0.679896555828905	0.220677521480477	72.623009340415
Chr7	38280186	38280539	354	14	0.148386218908135	0.498816528444033	-0.350430309535898	-72.4000863391587
Chr5	27924529	27924939	411	12	0.55270309261164	0.116230385003983	0.436472707607657	72.2062832876686
Chr8	12893144	12893352	209	13	0.300649030734828	0.646136119437416	-0.345487088702588	-72.1432816351201
Chr1	42772875	42773130	256	12	0.834247716977942	0.394902952492198	0.439344764485744	71.9424663548319
Chr6	6842740	6843025	286	12	0.844442015248496	0.524862700505346	0.31957931474315	71.9254933947334
Chr3	52136327	52136561	235	13	0.123241917386977	0.388206866244384	-0.264964948857407	-71.8341319513947
Chr4	29793554	29793953	400	11	0.832240675656454	0.377037766632148	0.455202909024306	71.3618597313782
Chr3	13540821	13541164	344	11	0.862043938618112	0.445784038965217	0.416259899652894	71.2002013508099
Chr2	11325102	11325422	321	13	0.698727302784552	0.291722892448739	0.407004410335812	70.9720249217829
NW_013657536.1	97889	98193	305	16	0.367786626622163	0.15972004062431	0.208066585997852	70.7847924880494
Chr8	8638176	8638428	253	12	0.498861074328692	0.824016155417984	-0.325155081089292	-70.7197838296455
Chr3	573041	573309	269	11	0.801196357911841	0.412620095311733	0.388576262600108	70.5027995433095
Chr3	28572092	28572321	230	14	0.316561622399375	0.113668832694411	0.202892789704965	70.3726973104537
Chr6	8379683	8380385	703	13	0.594691235043752	0.177946645603588	0.416744589440164	70.0971145699966
Chr2	16224877	16225145	269	11	0.481152408654273	0.857096383750127	-0.375943975095854	-69.9620524469671
Chr5	7443043	7443818	776	12	0.695885483104083	0.286762730135805	0.409122752968278	69.7819988230361
Chr4	6721400	6721569	170	11	0.0552037914562588	0.221061314702679	-0.16585752324642	-69.6226896251465
Chr2	29840716	29841200	485	11	0.624358116172276	0.130557241055002	0.493800875117274	69.5599873118222
Chr3	42613880	42614111	232	14	0.407629711800004	0.0946971531159874	0.312932558684016	69.3696640955231
Chr6	28897286	28897530	245	11	0.127354614475307	0.470151170706324	-0.342796556231017	-69.3658018531564
Chr6	12664223	12664638	416	12	0.455590740050241	0.849336957488829	-0.393746217438588	-69.2862270627432
Chr3	9422490	9423143	654	12	0.477810793948447	0.049094122663029	0.428716671285419	69.2506514567938
Chr8	36711340	36711505	166	13	0.908523173087808	0.707881849947793	0.200641323140015	69.2498622965515
Chr4	44919248	44919633	386	12	0.319079959398923	0.0416487091022541	0.277431250296668	68.9315141883501
Chr3	34488532	34488834	303	13	0.0745248846403854	0.308675846648232	-0.234150962007846	-68.8567032147009
Chr7	38709089	38709481	393	11	0.130251369675986	0.60733920194189	-0.477087832265905	-68.5257325832073
Chr3	22614577	22614895	319	11	0.598445232109347	0.140109471217559	0.458335760891788	68.5193740025154
Chr4	16502692	16502887	196	11	0.0442181282615433	0.403486261937537	-0.359268133675993	-67.939434724241
Chr5	38008043	38008353	311	13	0.0660227614904461	0.346935503131594	-0.280912741641148	-67.5652990366481
Chr1	10577711	10577819	109	11	0.545471944704599	0.254806754615995	0.290665190088605	67.4854034890061
Chr4	11239850	11239931	82	11	0.0323927122771927	0.169758743362536	-0.137366031085343	-67.3988145185506
Chr8	30752304	30752474	171	14	0.318648133035588	0.0788192826749772	0.239828850360611	67.1171305724757
Chr4	55683425	55683815	391	12	0.40119124373534	0.0316806309328001	0.36951061280254	66.8604564996181
Chr3	36053327	36053693	367	12	0.455409054321947	0.069652531733767	0.38575652258818	66.8327384504611
Chr4	28085974	28086244	271	13	0.259744633194191	0.617562101001704	-0.357817467807512	-66.577434078943
Chr6	21817175	21817583	409	11	0.276903191398594	0.700590287802316	-0.423687096403722	-66.4995106666133
Chr3	23903449	23903928	480	12	0.507058081676017	0.106277437342742	0.400780644333276	66.4782923320835
Chr7	6999891	7000197	307	11	0.483655190856821	0.8757159242001	-0.392060733343279	-65.7164113681283
Chr6	7889896	7890183	288	12	0.842367490382286	0.557964581226801	0.284402909155485	65.6389221724445
Chr8	34151672	34151943	272	12	0.672721703796298	0.309755238407434	0.362966465388863	65.4277270781069
Chr7	18384227	18384431	205	12	0.312853275978528	0.0448026150250166	0.268050660953511	65.284952023001
Chr2	27521445	27521726	282	12	0.402436114729103	0.0848385580964873	0.317597556632615	65.2831647531119
Chr8	36999567	37000072	506	11	0.426877059490384	0.850166940974063	-0.423289881483678	-64.7471330474848
Chr5	25875175	25875329	155	13	0.487077993883882	0.204475739834536	0.282602254049346	64.6012387296282
Chr4	21489522	21489858	337	12	0.093885002169443	0.423708323586583	-0.329823321417139	-64.3622387823108
Chr8	6319884	6320147	264	11	0.315570463718068	0.0189778555437354	0.296592608174333	64.2392470831611
Chr3	31840543	31840826	284	11	0.448869458930578	0.0641406040524763	0.384728854878102	64.078715856047
Chr5	17972259	17972413	155	11	0.286414517309547	0.060494487212425	0.225920030097122	64.0052232761316
Chr7	15820756	15821154	399	12	0.0666208936069999	0.372936188377953	-0.306315294770953	-63.0585098196796
Chr4	40775802	40776040	239	11	0.458577995135676	0.0985341569984419	0.360043838137234	62.8207327512068
Chr3	37681756	37682114	359	11	0.165444483163029	0.573703290450963	-0.408258807287934	-62.789169105743
NW_013657479.1	19260	19705	446	11	0.276357697369692	0.737189811714364	-0.460832114344672	-62.6219202364791
Chr6	1970352	1970696	345	11	0.855440878162373	0.423468843658273	0.431972034504101	62.3936308216972
Chr1	34229097	34229360	264	11	0.333004527911276	0.0804242558129667	0.252580272098309	62.2741760189026
Chr2	30066404	30066731	328	11	0.0354749613637245	0.341446122618619	-0.305971161254895	-62.0535829865834
Chr1	31463455	31463687	233	11	0.27474417347682	0.638253241262235	-0.363509067785415	-61.6945969025418
Chr3	44716948	44717288	341	13	0.13751908615825	0.407653259089556	-0.270134172931306	-61.5979961086734
Chr5	21214099	21214336	238	12	0.839928284331499	0.542547614045649	0.29738067028585	61.2448194288172
NW_013657276.1	11759	11987	229	12	0.609903911246723	0.262673329556375	0.347230581690348	60.8205754115956
Chr3	31562925	31563196	272	11	0.291781785164428	0.0540504853728621	0.237731299791566	60.7857035380045
Chr2	11922784	11922892	109	14	0.480232922018172	0.734152368978702	-0.25391944696053	-60.3278942001369
Chr2	36545259	36545533	275	11	0.817144348569394	0.380435931510002	0.436708417059392	60.127203483359
Chr1	47770241	47770579	339	11	0.128744031574026	0.51363387945935	-0.384889847885324	-59.6388769075173
Chr6	18099386	18099593	208	11	0.666955567540224	0.330245888838795	0.336709678701429	59.3239066508478
Chr4	44762079	44762229	151	12	0.836650419306871	0.61563255615644	0.221017863150431	58.9223386419082
NW_013656217.1	629	934	306	11	0.0606202964680232	0.302213114333035	-0.241592817865011	-58.7353536048612
NW_013657524.1	61018	61499	482	11	0.513914071590764	0.104277156493038	0.409636915097725	58.460497024789
Chr3	47133513	47133707	195	11	0.0804389618446032	0.335631702766787	-0.255192740922184	-58.2824952399696
Chr5	25633204	25633428	225	11	0.583576608985645	0.231101197297546	0.3524754116881	58.0820300947475
Chr4	35631176	35631264	89	11	0.840868507092061	0.53371947049354	0.307149036598521	57.9848616651403
Chr1	13728467	13728548	82	11	0.33407308447753	0.10652047130451	0.22755261317302	57.7817481198386
Chr1	40409328	40409537	210	11	0.280812744692928	0.603656904857896	-0.322844160164968	-56.7960255885362
Chr3	9456390	9456704	315	11	0.0790196153258013	0.426476250150485	-0.347456634824684	-56.1909632791496
Chr5	27811995	27812223	229	11	0.385767028318715	0.707469901651917	-0.321702873333202	-55.8364405970326
NW_013657337.1	15226	15351	126	11	0.761078121414089	0.241815814010308	0.51926230740378	55.0389243884801
Chr4	11181947	11182006	60	13	0.285657357519681	0.121071773431715	0.164585584087967	54.7789776383551
Chr6	5745656	5745859	204	12	0.119618564196888	0.327177131389418	-0.207558567192529	-54.1818379057843
Chr5	4747382	4747618	237	11	0.365446716475741	0.706153138132746	-0.340706421657005	-52.4824704441947
Chr7	3717869	3718097	229	11	0.936350387195845	0.747330751534603	0.189019635661242	50.4990303508222
Chr1	41457300	41457431	132	11	0.550143002589061	0.305532352314449	0.244610650274612	49.6204830161079
Chr1	7856837	7856945	109	11	0.548494062410595	0.338694233402917	0.209799829007679	49.0563531668985
Chr3	45316600	45316657	58	11	0.756485195631974	0.554466625289154	0.20201857034282	45.2378415371614
